{
    "pagination": {
        "total": 16,
        "per_page": 15,
        "current_page": 1,
        "last_page": 2,
        "from": 1,
        "to": 2
    },
    "classificationsOptions":[{
        "value": "ongoing",
        "label": "进行中"
      }, {
        "value": "votingEnd",
        "label": "已结束"
      }, {
        "value": "notStarted",
        "label": "未开始"
      }],
    "data": [
        {
            "voteId": "1",
            "createDate": "2016-05-03",
            "status": "进行中",
            "voteTitle": "科协创作与传播大赛 - 文案类"
        },
        {
            "voteId": "2",
            "createDate": "2016-05-03",
            "status": "进行中",
            "voteTitle": "科协创作与传播大赛 - 图片类"
        },
        {
            "voteId": "3",
            "createDate": "2016-05-03",
            "status": "进行中",
            "voteTitle": "科协创作与传播大赛 - 音频"
        },
        {
            "voteId": "4",
            "createDate": "2016-05-03",
            "status": "进行中",
            "voteTitle": "科协创作与传播大赛 - 视频"
        },
        {
            "voteId": "5",
            "createDate": "2016-05-03",
            "status": "进行中",
            "voteTitle": "科协创作与传播大赛 - 文案类111111111111111111111111111111111111111111111"
        },
        {
            "voteId": "6",
            "createDate": "2016-05-03",
            "status": "进行中",
            "voteTitle": "科协创作与传播大赛 - 图片类"
        },
        {
            "voteId": "7",
            "createDate": "2016-05-03",
            "status": "进行中",
            "voteTitle": "科协创作与传播大赛 - 音频"
        },
        {
            "voteId": "8",
            "createDate": "2016-05-03",
            "status": "进行中",
            "voteTitle": "科协创作与传播大赛 - 视频"
        },
        {
            "voteId": "9",
            "createDate": "2016-05-03",
            "status": "进行中",
            "voteTitle": "科协创作与传播大赛 - 文案类"
        },
        {
            "voteId": "10",
            "createDate": "2016-05-03",
            "status": "进行中",
            "voteTitle": "科协创作与传播大赛 - 图片类"
        },
        {
            "voteId": "11",
            "createDate": "2016-05-03",
            "status": "进行中",
            "voteTitle": "科协创作与传播大赛 - 音频"
        },
        {
            "voteId": "12",
            "createDate": "2016-05-03",
            "status": "进行中",
            "voteTitle": "科协创作与传播大赛 - 视频"
        },
        {
            "voteId": "13",
            "createDate": "2016-05-03",
            "status": "进行中",
            "voteTitle": "科协创作与传播大赛 - 文案类"
        },
        {
            "voteId": "14",
            "createDate": "2016-05-03",
            "status": "进行中",
            "voteTitle": "科协创作与传播大赛 - 图片类"
        },
        {
            "voteId": "15",
            "createDate": "2016-05-03",
            "status": "进行中",
            "voteTitle": "科协创作与传播大赛 - 音频"
        }
    ]
}